%!PS-Adobe-3.0 EPSF-3.0
%%Title: QLK_to_IMAS.eps
%%Creator: Matplotlib v3.5.1, https://matplotlib.org/
%%CreationDate: Thu Mar  7 11:21:07 2024
%%Orientation: portrait
%%BoundingBox: -385 45 998 747
%%HiResBoundingBox: -385.200000 45.000000 997.200000 747.000000
%%EndComments
%%BeginProlog
/mpldict 14 dict def
mpldict begin
/_d { bind def } bind def
/m { moveto } _d
/l { lineto } _d
/r { rlineto } _d
/c { curveto } _d
/cl { closepath } _d
/ce { closepath eofill } _d
/box {
      m
      1 index 0 r
      0 exch r
      neg 0 r
      cl
    } _d
/clipbox {
      box
      clip
      newpath
    } _d
/sc { setcachedevice } _d
%!PS-Adobe-3.0 Resource-Font
%%Creator: Converted from TrueType to Type 3 by Matplotlib.
10 dict begin
/FontName /Cmr10 def
/PaintType 0 def
/FontMatrix [0.00048828125 0 0 0.00048828125 0 0] def
/FontBBox [-90 -512 2066 1536] def
/FontType 3 def
/Encoding [/parenleft /parenright /Psi /zero /two] def
/CharStrings 6 dict dup begin
/.notdef 0 def
/parenleft{795 0 199 -512 680 1536 sc
635 -508 m
559 -448 493 -379 438 -301 c
383 -224 338 -141 303 -53 c
268 35 242 127 225 223 c
208 319 199 415 199 512 c
199 610 208 707 225 803 c
242 899 269 991 304 1080 c
340 1169 386 1252 441 1329 c
496 1406 561 1474 635 1532 c
635 1535 638 1536 645 1536 c
664 1536 l
668 1536 672 1534 675 1530 c
678 1527 680 1523 680 1518 c
680 1512 679 1508 676 1505 c
609 1440 554 1370 509 1295 c
465 1220 429 1141 402 1056 c
375 972 356 885 344 794 c
332 704 326 610 326 512 c
326 78 442 -252 674 -477 c
678 -481 680 -487 680 -494 c
680 -497 678 -501 674 -505 c
671 -510 667 -512 664 -512 c
645 -512 l
638 -512 635 -511 635 -508 c

ce} _d
/parenright{795 0 115 -512 596 1536 sc
133 -512 m
121 -512 115 -506 115 -494 c
115 -488 116 -484 119 -481 c
352 -253 469 78 469 512 c
469 946 354 1276 123 1501 c
118 1504 115 1510 115 1518 c
115 1523 117 1527 120 1530 c
124 1534 128 1536 133 1536 c
152 1536 l
156 1536 159 1535 162 1532 c
260 1455 342 1361 407 1250 c
472 1139 520 1021 550 896 c
581 771 596 643 596 512 c
596 415 588 320 571 226 c
555 133 529 41 493 -50 c
458 -141 413 -225 358 -302 c
303 -379 238 -448 162 -508 c
159 -511 156 -512 152 -512 c
133 -512 l

ce} _d
/Psi{1591 0 115 0 1477 1399 sc
438 0 m
438 72 l
613 72 700 94 700 137 c
700 287 l
624 297 558 317 503 346 c
448 376 402 415 365 463 c
328 511 299 567 280 630 c
261 694 252 763 252 836 c
252 997 213 1077 135 1077 c
132 1077 127 1079 122 1083 c
117 1088 115 1092 115 1096 c
115 1112 l
115 1117 117 1121 121 1124 c
126 1128 130 1130 135 1130 c
272 1130 l
315 1130 349 1114 372 1083 c
395 1052 411 1016 418 974 c
426 932 430 889 430 844 c
430 723 450 616 489 524 c
528 433 599 373 700 346 c
700 1262 l
700 1305 613 1327 438 1327 c
438 1399 l
1141 1399 l
1141 1327 l
966 1327 879 1305 879 1262 c
879 344 l
950 362 1007 396 1049 447 c
1091 498 1120 558 1136 626 c
1153 694 1161 767 1161 844 c
1161 917 1172 983 1194 1042 c
1216 1101 1258 1130 1319 1130 c
1456 1130 l
1461 1130 1465 1128 1470 1124 c
1475 1121 1477 1117 1477 1112 c
1477 1096 l
1477 1091 1474 1087 1469 1083 c
1464 1079 1459 1077 1456 1077 c
1378 1077 1339 997 1339 836 c
1339 762 1329 693 1310 629 c
1291 566 1261 510 1222 461 c
1183 413 1136 374 1079 344 c
1023 315 956 295 879 285 c
879 137 l
879 94 966 72 1141 72 c
1141 0 l
438 0 l

ce} _d
/zero{1024 0 80 -45 942 1364 sc
512 -45 m
345 -45 231 24 170 161 c
110 299 80 463 80 653 c
80 772 91 883 112 988 c
134 1093 177 1181 241 1254 c
306 1327 396 1364 512 1364 c
602 1364 676 1342 733 1298 c
790 1254 834 1197 864 1127 c
894 1058 914 983 925 903 c
936 824 942 740 942 653 c
942 536 931 426 909 323 c
888 221 845 134 782 62 c
719 -9 629 -45 512 -45 c

512 8 m
588 8 645 47 682 125 c
719 203 742 289 751 384 c
760 479 764 579 764 686 c
764 789 760 883 751 970 c
742 1057 719 1135 682 1205 c
645 1276 589 1311 512 1311 c
435 1311 377 1276 340 1205 c
303 1134 280 1056 271 969 c
262 883 258 789 258 686 c
258 610 260 538 263 471 c
267 404 277 334 293 262 c
309 191 335 130 370 81 c
406 32 453 8 512 8 c

ce} _d
/two{1024 0 102 0 920 1364 sc
102 0 m
102 55 l
102 58 103 62 106 66 c
424 418 l
472 470 511 514 541 549 c
571 584 601 625 630 671 c
659 717 682 764 699 811 c
716 859 725 910 725 963 c
725 1019 715 1072 694 1123 c
673 1174 642 1215 601 1246 c
560 1277 511 1292 453 1292 c
394 1292 340 1274 293 1238 c
246 1203 212 1157 193 1100 c
198 1101 206 1102 215 1102 c
246 1102 272 1092 293 1071 c
315 1050 326 1024 326 991 c
326 960 315 933 293 911 c
272 890 246 879 215 879 c
183 879 156 890 134 912 c
113 935 102 961 102 991 c
102 1042 112 1090 131 1135 c
150 1180 178 1220 214 1255 c
251 1290 292 1317 337 1336 c
383 1355 432 1364 483 1364 c
561 1364 634 1347 701 1314 c
768 1281 822 1235 861 1174 c
900 1114 920 1044 920 963 c
920 904 907 847 881 794 c
855 741 822 692 781 648 c
740 605 688 555 625 500 c
562 445 520 408 500 389 c
268 166 l
465 166 l
562 166 642 167 707 168 c
772 170 807 173 811 176 c
827 193 843 256 860 365 c
920 365 l
862 0 l
102 0 l

ce} _d
end readonly def

/BuildGlyph {
 exch begin
 CharStrings exch
 2 copy known not {pop /.notdef} if
 true 3 1 roll get exec
 end
} _d

/BuildChar {
 1 index /Encoding get exch get
 1 index /BuildGlyph get exec
} _d

FontName currentdict end definefont pop
%!PS-Adobe-3.0 Resource-Font
%%Creator: Converted from TrueType to Type 3 by Matplotlib.
10 dict begin
/FontName /Cmmi10 def
/PaintType 0 def
/FontMatrix [0.00048828125 0 0 0.00048828125 0 0] def
/FontBBox [-70 -512 2146 1536] def
/FontType 3 def
/Encoding [/phi1 /R /r /theta /Z /comma] def
/CharStrings 7 dict dup begin
/.notdef 0 def
/phi1{1339 0 102 -446 1266 905 sc
334 -389 m
334 -384 335 -376 338 -365 c
453 -4 l
351 21 267 68 201 137 c
135 206 102 290 102 389 c
102 439 111 495 130 558 c
149 621 173 680 202 736 c
231 793 263 840 297 877 c
305 881 310 883 311 883 c
336 883 l
340 883 344 881 347 877 c
350 873 352 869 352 864 c
352 859 351 855 348 852 c
325 827 303 797 281 761 c
260 726 240 688 223 649 c
206 610 192 568 181 525 c
170 482 164 444 164 412 c
164 331 196 266 260 216 c
325 167 401 134 489 117 c
547 301 l
572 380 597 451 622 513 c
647 576 679 637 716 696 c
754 756 800 806 853 845 c
906 885 966 905 1032 905 c
1084 905 1127 892 1162 866 c
1197 840 1223 805 1240 762 c
1257 719 1266 672 1266 623 c
1266 542 1248 462 1212 384 c
1176 307 1127 237 1064 175 c
1001 114 931 65 852 30 c
773 -5 694 -23 614 -23 c
603 -22 592 -22 579 -21 c
567 -20 557 -20 549 -20 c
481 -377 l
477 -397 467 -413 450 -426 c
434 -439 416 -446 395 -446 c
378 -446 364 -441 352 -430 c
340 -420 334 -406 334 -389 c

571 106 m
586 105 608 104 637 104 c
722 104 808 125 895 166 c
983 208 1056 265 1113 338 c
1171 411 1200 490 1200 575 c
1200 614 1192 648 1176 679 c
1161 710 1139 734 1110 751 c
1082 769 1049 778 1012 778 c
906 778 817 727 746 624 c
675 521 628 411 606 293 c
571 106 l

ce} _d
/R{1554 0 80 -45 1546 1399 sc
100 0 m
87 0 80 9 80 27 c
81 30 82 36 84 44 c
86 53 89 59 92 64 c
96 69 101 72 106 72 c
189 72 248 77 281 86 c
298 92 311 110 319 141 c
600 1266 l
603 1279 604 1289 604 1294 c
604 1309 596 1317 580 1319 c
554 1324 505 1327 432 1327 c
419 1327 412 1336 412 1354 c
413 1357 414 1363 416 1371 c
418 1380 421 1386 424 1391 c
428 1396 433 1399 438 1399 c
1059 1399 l
1108 1399 1160 1393 1213 1382 c
1266 1371 1315 1353 1360 1328 c
1405 1304 1441 1272 1470 1231 c
1499 1191 1513 1144 1513 1090 c
1513 1021 1490 960 1445 906 c
1400 852 1342 807 1273 770 c
1204 734 1136 709 1071 694 c
1124 675 1168 644 1202 601 c
1236 559 1253 510 1253 455 c
1253 448 1253 442 1252 438 c
1252 435 1252 431 1251 426 c
1235 244 l
1234 217 1232 195 1231 176 c
1230 157 1229 142 1229 131 c
1229 94 1234 64 1245 41 c
1256 19 1278 8 1311 8 c
1354 8 1391 28 1423 67 c
1456 107 1477 150 1487 197 c
1493 209 1500 215 1507 215 c
1526 215 l
1539 215 1546 206 1546 188 c
1536 149 1520 111 1498 76 c
1477 41 1449 12 1416 -11 c
1383 -34 1348 -45 1309 -45 c
1229 -45 1161 -27 1104 8 c
1048 44 1020 100 1020 176 c
1020 205 1023 230 1028 252 c
1073 434 l
1078 451 1081 470 1081 492 c
1081 549 1062 593 1023 625 c
985 658 937 674 879 674 c
627 674 l
492 133 l
489 122 487 112 487 104 c
487 90 495 82 512 80 c
538 75 587 72 659 72 c
673 72 680 63 680 45 c
675 26 672 13 669 8 c
666 3 658 0 645 0 c
100 0 l

639 727 m
866 727 l
1015 727 1127 765 1202 840 c
1237 875 1264 919 1284 972 c
1305 1026 1315 1080 1315 1133 c
1315 1184 1300 1223 1270 1252 c
1241 1281 1204 1300 1160 1311 c
1117 1322 1069 1327 1016 1327 c
879 1327 l
842 1327 817 1324 805 1317 c
793 1311 782 1291 772 1257 c
639 727 l

ce} _d
/r{924 0 55 -23 889 905 sc
158 35 m
158 43 159 49 160 53 c
313 664 l
323 702 328 735 328 764 c
328 823 308 852 268 852 c
225 852 194 826 173 775 c
152 724 132 660 113 582 c
113 578 111 575 107 572 c
103 570 99 569 96 569 c
72 569 l
67 569 63 571 60 576 c
57 581 55 586 55 590 c
70 649 84 700 97 741 c
111 782 132 820 161 854 c
190 888 227 905 270 905 c
317 905 359 891 394 864 c
430 837 452 801 461 756 c
496 801 535 837 579 864 c
624 891 672 905 725 905 c
768 905 806 892 839 867 c
872 842 889 807 889 764 c
889 729 878 699 856 673 c
835 648 806 635 770 635 c
748 635 729 642 714 655 c
699 669 692 687 692 709 c
692 739 703 766 725 789 c
747 813 772 825 801 825 c
779 843 752 852 721 852 c
662 852 611 831 568 789 c
525 748 486 695 451 631 c
305 45 l
300 26 290 10 273 -3 c
257 -16 239 -23 219 -23 c
202 -23 188 -18 176 -7 c
164 4 158 18 158 35 c

ce} _d
/theta{961 0 82 -23 936 1444 sc
330 -23 m
268 -23 218 -0 181 45 c
144 90 118 145 103 209 c
89 273 82 336 82 399 c
82 401 l
82 469 88 540 101 613 c
114 686 133 759 158 832 c
183 905 209 971 238 1028 c
258 1068 284 1113 315 1162 c
347 1211 382 1257 421 1300 c
460 1343 502 1378 547 1404 c
592 1431 638 1444 684 1444 c
686 1444 l
735 1444 776 1430 809 1403 c
842 1376 868 1341 886 1298 c
905 1255 918 1210 925 1161 c
932 1112 936 1066 936 1022 c
936 919 922 813 894 705 c
866 598 827 494 778 393 c
759 355 733 310 700 259 c
667 208 632 162 595 121 c
558 80 517 46 471 18 c
425 -9 379 -23 332 -23 c
330 -23 l

334 31 m
379 31 423 55 464 103 c
506 152 543 210 574 279 c
605 348 633 419 656 491 c
680 564 698 625 709 676 c
291 676 l
270 590 253 516 241 453 c
229 391 223 330 223 270 c
223 111 260 31 334 31 c

307 748 m
727 748 l
742 808 753 858 762 898 c
771 939 778 981 784 1026 c
790 1071 793 1112 793 1151 c
793 1311 757 1391 684 1391 c
597 1391 522 1321 459 1181 c
396 1042 346 897 307 748 c

ce} _d
/Z{1397 0 119 0 1479 1399 sc
119 16 m
119 36 124 52 133 63 c
1260 1327 l
958 1327 l
858 1327 775 1315 709 1291 c
644 1268 589 1228 546 1173 c
503 1118 467 1043 438 948 c
435 936 429 930 418 930 c
399 930 l
386 930 379 939 379 956 c
508 1380 l
511 1393 517 1399 528 1399 c
1462 1399 l
1473 1399 1479 1393 1479 1382 c
1479 1362 1475 1348 1466 1339 c
344 78 l
655 78 l
776 78 870 93 939 122 c
1008 152 1063 199 1103 263 c
1144 327 1183 418 1221 537 c
1222 542 1225 546 1228 549 c
1232 553 1236 555 1241 555 c
1260 555 l
1273 555 1280 546 1280 528 c
1118 18 l
1112 6 1105 0 1098 0 c
137 0 l
125 0 119 5 119 16 c

ce} _d
/comma{567 0 172 -397 420 225 sc
203 -369 m
203 -363 206 -357 211 -352 c
260 -305 299 -250 326 -188 c
353 -126 367 -61 367 8 c
367 33 l
345 11 318 0 285 0 c
254 0 227 11 205 33 c
183 55 172 82 172 113 c
172 145 183 172 205 193 c
227 214 254 225 285 225 c
334 225 368 202 389 157 c
410 112 420 63 420 8 c
420 -68 405 -140 374 -208 c
344 -277 301 -338 246 -393 c
241 -396 236 -397 233 -397 c
226 -397 220 -394 213 -388 c
206 -382 203 -376 203 -369 c

ce} _d
end readonly def

/BuildGlyph {
 exch begin
 CharStrings exch
 2 copy known not {pop /.notdef} if
 true 3 1 roll get exec
 end
} _d

/BuildChar {
 1 index /Encoding get exch get
 1 index /BuildGlyph get exec
} _d

FontName currentdict end definefont pop
%!PS-Adobe-3.0 Resource-Font
%%Creator: Converted from TrueType to Type 3 by Matplotlib.
10 dict begin
/FontName /STIXGeneral-Regular def
/PaintType 0 def
/FontMatrix [0.001 0 0 0.001 0 0] def
/FontBBox [-970 -443 2000 1023] def
/FontType 3 def
/Encoding [/uni2A00 /a /space /uni2A02 /i /m /n /x /bracketleft /bracketright] def
/CharStrings 11 dict dup begin
/.notdef 0 def
/uni2A00{1126 0 53 -259 1073 763 sc
622 308 m
638 292 646 273 646 250 c
646 227 638 208 622 191 c
606 175 586 167 563 167 c
540 167 520 175 504 191 c
488 208 480 227 480 250 c
480 273 488 292 504 308 c
520 325 540 333 563 333 c
586 333 606 325 622 308 c

924 613 m
1023 514 1073 393 1073 252 c
1073 111 1023 -10 924 -109 c
825 -209 704 -259 563 -259 c
471 -259 386 -236 307 -191 c
229 -146 167 -84 121 -5 c
76 74 53 159 53 252 c
53 393 103 514 202 613 c
301 713 422 763 563 763 c
704 763 825 713 924 613 c

867 -52 m
951 32 993 133 993 252 c
993 371 951 472 867 556 c
783 641 682 683 563 683 c
444 683 343 641 259 556 c
175 472 133 371 133 252 c
133 133 175 32 259 -52 c
343 -137 444 -179 563 -179 c
682 -179 783 -137 867 -52 c

ce} _d
/a{444 0 37 -10 442 460 sc
442 66 m
442 38 l
417 6 387 -10 352 -10 c
314 -10 293 14 288 63 c
287 63 l
244 14 196 -10 142 -10 c
111 -10 85 -1 66 17 c
47 36 37 61 37 94 c
37 141 60 180 107 211 c
139 232 199 259 287 292 c
287 346 l
287 376 280 398 265 413 c
251 428 232 436 209 436 c
189 436 172 431 159 421 c
146 412 139 400 139 387 c
139 381 140 374 142 367 c
144 360 145 352 145 345 c
145 335 140 326 131 317 c
122 308 112 304 99 304 c
88 304 78 308 69 317 c
60 326 56 337 56 350 c
56 382 73 409 107 430 c
138 450 177 460 222 460 c
276 460 315 445 340 415 c
352 401 360 387 363 372 c
366 358 368 335 368 304 c
368 113 l
368 69 378 47 399 47 c
412 47 427 53 442 66 c

287 127 m
287 268 l
226 247 183 225 159 202 c
136 181 125 156 125 125 c
125 100 131 80 144 67 c
157 54 173 48 194 48 c
216 48 235 53 252 64 c
266 74 275 83 280 92 c
285 101 287 112 287 127 c

ce} _d
/space{250 0 0 0 0 0 sc
ce} _d
/uni2A02{1126 0 53 -259 1073 763 sc
924 613 m
1023 514 1073 393 1073 252 c
1073 111 1023 -10 924 -109 c
825 -209 704 -259 563 -259 c
471 -259 386 -236 307 -191 c
229 -146 167 -84 121 -5 c
76 74 53 159 53 252 c
53 393 103 514 202 613 c
301 713 422 763 563 763 c
704 763 825 713 924 613 c

563 299 m
843 579 l
762 648 668 683 563 683 c
456 683 363 648 283 579 c
563 299 l

610 252 m
889 -27 l
958 53 993 146 993 252 c
993 357 958 451 889 532 c
610 252 l

516 252 m
236 532 l
167 451 133 357 133 252 c
133 147 167 54 236 -27 c
516 252 l

843 -75 m
563 205 l
283 -75 l
363 -144 456 -179 563 -179 c
668 -179 762 -144 843 -75 c

ce} _d
/i{278 0 16 0 253 683 sc
180 632 m
180 617 175 605 165 595 c
155 586 143 581 128 581 c
114 581 102 586 92 595 c
83 605 78 617 78 632 c
78 646 83 658 93 668 c
103 678 115 683 129 683 c
144 683 156 678 165 668 c
175 658 180 646 180 632 c

253 0 m
16 0 l
16 15 l
51 17 72 23 81 33 c
90 43 95 67 95 104 c
95 331 l
95 354 93 371 88 380 c
83 389 75 394 62 394 c
46 394 32 392 20 389 c
20 405 l
175 460 l
179 456 l
179 105 l
179 68 183 44 191 34 c
200 24 220 18 253 15 c
253 0 l

ce} _d
/m{778 0 16 0 775 460 sc
775 0 m
557 0 l
557 15 l
585 18 603 23 610 32 c
618 41 622 61 622 90 c
622 296 l
622 336 616 365 604 382 c
593 399 573 408 545 408 c
522 408 502 403 485 394 c
469 385 453 369 438 347 c
438 95 l
438 63 443 42 452 31 c
462 21 481 16 510 15 c
510 0 l
286 0 l
286 15 l
315 17 334 22 342 29 c
350 37 354 56 354 86 c
354 297 l
354 371 332 408 289 408 c
270 408 250 404 229 395 c
208 387 193 377 183 365 c
174 355 170 349 170 348 c
170 70 l
170 49 175 34 184 27 c
193 20 211 16 238 15 c
238 0 l
16 0 l
16 15 l
44 16 63 21 72 30 c
81 40 86 59 86 88 c
86 336 l
86 361 83 378 78 387 c
73 397 64 402 51 402 c
41 402 30 401 19 398 c
19 415 l
64 428 111 443 158 460 c
166 457 l
166 383 l
168 383 l
198 414 224 435 247 445 c
270 455 295 460 321 460 c
374 460 409 432 427 376 c
479 432 533 460 590 460 c
667 460 706 400 706 280 c
706 77 l
706 55 709 40 716 31 c
723 23 734 18 749 17 c
775 15 l
775 0 l

ce} _d
/n{500 0 16 0 485 460 sc
485 0 m
277 0 l
278 15 l
303 17 319 24 327 36 c
336 49 340 72 340 105 c
340 304 l
340 371 316 405 267 405 c
250 405 235 401 220 393 c
205 385 187 370 164 348 c
164 72 l
164 52 168 38 177 30 c
186 22 204 17 229 15 c
229 0 l
18 0 l
18 15 l
43 17 60 23 68 33 c
76 44 80 64 80 94 c
80 337 l
80 362 78 379 73 388 c
68 397 59 402 45 402 c
32 402 22 401 16 398 c
16 415 l
63 428 108 443 153 460 c
161 457 l
161 379 l
162 379 l
209 433 257 460 306 460 c
344 460 373 447 393 420 c
414 393 424 355 424 306 c
424 85 l
424 58 428 41 436 32 c
444 23 460 18 485 15 c
485 0 l

ce} _d
/x{500 0 17 0 479 450 sc
479 0 m
278 0 l
278 15 l
295 16 305 18 310 21 c
315 24 318 30 318 39 c
318 45 316 51 312 57 c
221 197 l
142 74 l
129 53 122 40 122 33 c
122 21 135 15 162 15 c
162 0 l
17 0 l
17 15 l
34 16 46 20 55 26 c
64 33 76 46 90 66 c
204 231 l
110 375 l
95 398 82 414 71 422 c
60 431 48 435 33 435 c
24 435 l
24 450 l
231 450 l
231 435 l
202 434 188 427 188 413 c
188 399 203 369 234 324 c
243 312 247 305 248 304 c
251 309 261 323 278 348 c
281 354 285 360 290 367 c
295 374 298 379 300 383 c
303 387 305 391 308 395 c
311 399 312 402 313 405 c
314 408 315 411 315 413 c
315 426 302 433 275 435 c
275 450 l
433 450 l
433 435 l
399 434 372 419 352 391 c
269 271 l
397 75 l
423 35 450 15 479 15 c
479 0 l

ce} _d
/bracketleft{333 0 88 -156 299 662 sc
299 -156 m
88 -156 l
88 662 l
299 662 l
299 637 l
216 637 l
199 637 186 633 177 626 c
168 619 164 606 164 589 c
164 -77 l
164 -113 181 -131 216 -131 c
299 -131 l
299 -156 l

ce} _d
/bracketright{333 0 34 -156 245 662 sc
245 -156 m
34 -156 l
34 -131 l
122 -131 l
139 -131 151 -127 158 -120 c
165 -113 169 -101 169 -85 c
169 583 l
169 619 152 637 118 637 c
34 637 l
34 662 l
245 662 l
245 -156 l

ce} _d
end readonly def

/BuildGlyph {
 exch begin
 CharStrings exch
 2 copy known not {pop /.notdef} if
 true 3 1 roll get exec
 end
} _d

/BuildChar {
 1 index /Encoding get exch get
 1 index /BuildGlyph get exec
} _d

FontName currentdict end definefont pop
%!PS-Adobe-3.0 Resource-Font
%%Creator: Converted from TrueType to Type 3 by Matplotlib.
10 dict begin
/FontName /DejaVuSans-Bold def
/PaintType 0 def
/FontMatrix [0.00048828125 0 0 0.00048828125 0 0] def
/FontBBox [-2190 -850 4045 2405] def
/FontType 3 def
/Encoding [/A /I /K /L /M /Q /S] def
/CharStrings 8 dict dup begin
/.notdef 0 def
/A{1585 0 10 0 1575 1493 sc
1094 272 m
492 272 l
397 0 l
10 0 l
563 1493 l
1022 1493 l
1575 0 l
1188 0 l
1094 272 l

588 549 m
997 549 l
793 1143 l
588 549 l

ce} _d
/I{762 0 188 0 573 1493 sc
188 1493 m
573 1493 l
573 0 l
188 0 l
188 1493 l

ce} _d
/K{1587 0 188 0 1649 1493 sc
188 1493 m
573 1493 l
573 948 l
1128 1493 l
1575 1493 l
856 786 l
1649 0 l
1167 0 l
573 588 l
573 0 l
188 0 l
188 1493 l

ce} _d
/L{1305 0 188 0 1249 1493 sc
188 1493 m
573 1493 l
573 291 l
1249 291 l
1249 0 l
188 0 l
188 1493 l

ce} _d
/M{2038 0 188 0 1849 1493 sc
188 1493 m
678 1493 l
1018 694 l
1360 1493 l
1849 1493 l
1849 0 l
1485 0 l
1485 1092 l
1141 287 l
897 287 l
553 1092 l
553 0 l
188 0 l
188 1493 l

ce} _d
/Q{1741 0 102 -299 1638 1520 sc
911 -27 m
881 -27 l
635 -27 444 41 307 177 c
170 313 102 502 102 745 c
102 987 170 1177 306 1314 c
443 1451 631 1520 870 1520 c
1112 1520 1300 1452 1435 1316 c
1570 1180 1638 990 1638 745 c
1638 577 1602 432 1530 311 c
1459 190 1356 98 1221 37 c
1522 -299 l
1155 -299 l
911 -27 l

870 1241 m
753 1241 662 1198 597 1111 c
532 1024 500 902 500 745 c
500 585 532 462 595 377 c
658 292 750 250 870 250 c
988 250 1079 293 1144 380 c
1209 467 1241 588 1241 745 c
1241 902 1209 1024 1144 1111 c
1079 1198 988 1241 870 1241 c

ce} _d
/S{1475 0 147 -29 1325 1520 sc
1227 1446 m
1227 1130 l
1145 1167 1065 1194 987 1213 c
909 1232 835 1241 766 1241 c
674 1241 606 1228 562 1203 c
518 1178 496 1138 496 1085 c
496 1045 511 1014 540 991 c
570 969 624 950 702 934 c
866 901 l
1032 868 1150 817 1220 749 c
1290 681 1325 584 1325 459 c
1325 294 1276 172 1178 91 c
1081 11 932 -29 731 -29 c
636 -29 541 -20 446 -2 c
351 16 255 43 160 78 c
160 403 l
255 352 347 314 436 288 c
525 263 611 250 694 250 c
778 250 842 264 887 292 c
932 320 954 360 954 412 c
954 459 939 495 908 520 c
878 545 818 568 727 588 c
578 621 l
429 653 319 704 250 774 c
181 844 147 938 147 1057 c
147 1206 195 1320 291 1400 c
387 1480 525 1520 705 1520 c
787 1520 871 1514 958 1501 c
1045 1489 1134 1471 1227 1446 c

ce} _d
end readonly def

/BuildGlyph {
 exch begin
 CharStrings exch
 2 copy known not {pop /.notdef} if
 true 3 1 roll get exec
 end
} _d

/BuildChar {
 1 index /Encoding get exch get
 1 index /BuildGlyph get exec
} _d

FontName currentdict end definefont pop
end
%%EndProlog
mpldict begin
-385.2 45 translate
1382.4 702 0 0 clipbox
gsave
0 0 m
1382.4 0 l
1382.4 702 l
0 702 l
cl
1.000 setgray
fill
grestore
gsave
177.306395 68.079234 m
574.257118 68.079234 l
574.257118 641.4525 l
177.306395 641.4525 l
cl
1.000 setgray
fill
grestore
1.000 setlinewidth
1 setlinejoin
0 setlinecap
[] 0 setdash
0.000 setgray
gsave
396.951 573.373 177.306 68.079 clipbox
/o {
gsave
newpath
translate
1.0 setlinewidth
1 setlinejoin

0 setlinecap

0 -3 m
0.795609 -3 1.55874 -2.683901 2.12132 -2.12132 c
2.683901 -1.55874 3 -0.795609 3 0 c
3 0.795609 2.683901 1.55874 2.12132 2.12132 c
1.55874 2.683901 0.795609 3 0 3 c
-0.795609 3 -1.55874 2.683901 -2.12132 2.12132 c
-2.683901 1.55874 -3 0.795609 -3 0 c
-3 -0.795609 -2.683901 -1.55874 -2.12132 -2.12132 c
-1.55874 -2.683901 -0.795609 -3 0 -3 c
cl

gsave
0.000 setgray
fill
grestore
stroke
grestore
} bind def
375.782 354.766 o
grestore
gsave
396.951 573.373 177.306 68.079 clipbox
427.730767 408.143656 m
441.994703 398.118967 l
437.605241 394.875022 l
428.430447 407.289663 l
428.341771 407.224128 l
437.516565 394.809488 l
433.127102 391.565543 l
cl
fill
grestore
1.500 setlinewidth
0 setlinejoin
gsave
396.951 573.373 177.306 68.079 clipbox
486.045846 156.290506 m
469.506233 150.777302 l
469.506233 156.235374 l
265.517667 156.235374 l
265.517667 156.345638 l
469.506233 156.345638 l
469.506233 161.80371 l
cl
gsave
fill
grestore
stroke
grestore
gsave
396.951 573.373 177.306 68.079 clipbox
265.517667 156.290506 m
282.05728 161.80371 l
282.05728 156.345638 l
486.045846 156.345638 l
486.045846 156.235374 l
282.05728 156.235374 l
282.05728 150.777302 l
cl
gsave
fill
grestore
stroke
grestore
0.800 setlinewidth
1 setlinejoin
gsave
/o {
gsave
newpath
translate
0.8 setlinewidth
1 setlinejoin

0 setlinecap

0 0 m
0 -3.5 l

gsave
0.000 setgray
fill
grestore
stroke
grestore
} bind def
265.518 68.0792 o
grestore
gsave
/o {
gsave
newpath
translate
0.8 setlinewidth
1 setlinejoin

0 setlinecap

0 0 m
0 -3.5 l

gsave
0.000 setgray
fill
grestore
stroke
grestore
} bind def
486.046 68.0792 o
grestore
gsave
/o {
gsave
newpath
translate
0.8 setlinewidth
1 setlinejoin

0 setlinecap

-0 0 m
-3.5 0 l

gsave
0.000 setgray
fill
grestore
stroke
grestore
} bind def
177.306 244.502 o
grestore
gsave
/o {
gsave
newpath
translate
0.8 setlinewidth
1 setlinejoin

0 setlinecap

-0 0 m
-3.5 0 l

gsave
0.000 setgray
fill
grestore
stroke
grestore
} bind def
177.306 465.03 o
grestore
3.000 setlinewidth
2 setlinecap
0.000 0.000 1.000 setrgbcolor
gsave
396.951 573.373 177.306 68.079 clipbox
486.045846 354.765867 m
485.894733 360.536644 l
485.441808 366.291603 l
484.688312 372.014971 l
483.636311 377.69106 l
482.288688 383.304314 l
480.649137 388.839345 l
478.722152 394.280983 l
476.513015 399.614313 l
474.02778 404.824716 l
471.273259 409.897912 l
468.257003 414.819995 l
464.987279 419.577473 l
461.473048 424.157307 l
457.723944 428.546944 l
453.750242 432.734353 l
449.562834 436.708055 l
445.173196 440.457159 l
440.593362 443.971389 l
435.835884 447.241114 l
430.913801 450.25737 l
425.840606 453.01189 l
420.630202 455.497125 l
415.296872 457.706263 l
409.855234 459.633248 l
404.320203 461.272799 l
398.70695 462.620422 l
393.03086 463.672423 l
387.307492 464.425919 l
381.552533 464.878844 l
375.781756 465.029957 l
370.01098 464.878844 l
364.256021 464.425919 l
358.532653 463.672423 l
352.856563 462.620422 l
347.24331 461.272799 l
341.708279 459.633248 l
336.266641 457.706263 l
330.933311 455.497125 l
325.722907 453.01189 l
320.649712 450.25737 l
315.727629 447.241114 l
310.970151 443.971389 l
306.390317 440.457159 l
302.000679 436.708055 l
297.813271 432.734353 l
293.839569 428.546944 l
290.090465 424.157307 l
286.576234 419.577473 l
283.30651 414.819995 l
280.290254 409.897912 l
277.535733 404.824716 l
275.050498 399.614313 l
272.841361 394.280983 l
270.914376 388.839345 l
269.274825 383.304314 l
267.927202 377.69106 l
266.875201 372.014971 l
266.121705 366.291603 l
265.66878 360.536644 l
265.517667 354.765867 l
265.66878 348.995091 l
266.121705 343.240131 l
266.875201 337.516763 l
267.927202 331.840674 l
269.274825 326.227421 l
270.914376 320.69239 l
272.841361 315.250752 l
275.050498 309.917422 l
277.535733 304.707018 l
280.290254 299.633822 l
283.30651 294.71174 l
286.576234 289.954261 l
290.090465 285.374427 l
293.839569 280.98479 l
297.813271 276.797382 l
302.000679 272.82368 l
306.390317 269.074575 l
310.970151 265.560345 l
315.727629 262.290621 l
320.649712 259.274365 l
325.722907 256.519844 l
330.933311 254.034609 l
336.266641 251.825471 l
341.708279 249.898486 l
347.24331 248.258935 l
352.856563 246.911313 l
358.532653 245.859312 l
364.256021 245.105816 l
370.01098 244.652891 l
375.781756 244.501778 l
381.552533 244.652891 l
387.307492 245.105816 l
393.03086 245.859312 l
398.70695 246.911313 l
404.320203 248.258935 l
409.855234 249.898486 l
415.296872 251.825471 l
420.630202 254.034609 l
425.840606 256.519844 l
430.913801 259.274365 l
435.835884 262.290621 l
440.593362 265.560345 l
445.173196 269.074575 l
449.562834 272.82368 l
453.750242 276.797382 l
457.723944 280.98479 l
461.473048 285.374427 l
464.987279 289.954261 l
468.257003 294.71174 l
471.273259 299.633822 l
474.02778 304.707018 l
476.513015 309.917422 l
478.722152 315.250752 l
480.649137 320.69239 l
482.288688 326.227421 l
483.636311 331.840674 l
484.688312 337.516763 l
485.441808 343.240131 l
485.894733 348.995091 l
486.029052 352.841493 l
486.029052 352.841493 l
stroke
grestore
gsave
396.951 573.373 177.306 68.079 clipbox
486.029052 352.841493 m
486.045846 354.765867 l
stroke
grestore
1.500 setlinewidth
0 setlinecap
[3 3] 0 setdash
0.000 setgray
gsave
396.951 573.373 177.306 68.079 clipbox
177.306395 244.501778 m
375.781756 244.501778 l
stroke
grestore
gsave
396.951 573.373 177.306 68.079 clipbox
486.045846 68.079234 m
486.045846 354.765867 l
stroke
grestore
gsave
396.951 573.373 177.306 68.079 clipbox
265.517667 68.079234 m
265.517667 354.765867 l
stroke
grestore
gsave
396.951 573.373 177.306 68.079 clipbox
177.306395 465.029957 m
375.781756 465.029957 l
stroke
grestore
2 setlinecap
[] 0 setdash
gsave
396.951 573.373 177.306 68.079 clipbox
375.781756 354.765867 m
486.045846 354.765867 l
stroke
grestore
gsave
396.951 573.373 177.306 68.079 clipbox
375.781756 354.765867 m
453.750242 432.734353 l
stroke
grestore
2.000 setlinewidth
gsave
396.951 573.373 177.306 68.079 clipbox
449.264193 356.756456 m
449.183342 358.745585 l
449.048656 360.731796 l
448.860234 362.713631 l
448.618215 364.689636 l
448.322775 366.658364 l
447.974132 368.618369 l
447.572541 370.568214 l
447.118296 372.506469 l
446.611732 374.431713 l
446.053218 376.342533 l
445.443166 378.237529 l
444.782022 380.11531 l
444.070271 381.974498 l
443.308436 383.813732 l
442.497075 385.63166 l
441.636783 387.426951 l
440.728191 389.198287 l
439.771965 390.94437 l
438.768807 392.663918 l
437.719453 394.355671 l
436.624672 396.018388 l
435.485268 397.650849 l
stroke
grestore
1.000 setlinewidth
0 setlinejoin
0 setlinecap
gsave
/o {
gsave
newpath
translate
1.0 setlinewidth
0 setlinejoin

0 setlinecap

3 -0 m
-3 3 l
-3 -3 l
cl

gsave
0.000 setgray
fill
grestore
stroke
grestore
} bind def
574.257 68.0792 o
grestore
gsave
/o {
gsave
newpath
translate
1.0 setlinewidth
0 setlinejoin

0 setlinecap

0 3 m
-3 -3 l
3 -3 l
cl

gsave
0.000 setgray
fill
grestore
stroke
grestore
} bind def
177.306 641.452 o
grestore
2.000 setlinewidth
2 setlinecap
gsave
177.306395 68.079234 m
177.306395 641.4525 l
stroke
grestore
gsave
177.306395 68.079234 m
574.257118 68.079234 l
stroke
grestore
0.000 0.000 1.000 setrgbcolor
gsave
463.993028 451.664639 translate
0.000000 rotate
/Cmr10 40.0 selectfont
0.000000 0.671875 moveto
/Psi glyphshow
/Cmr10 28.0 selectfont
32.859875 -6.130625 moveto
/zero glyphshow
grestore
0.000 setgray
gsave
340.781756 328.739458 translate
0.000000 rotate
/Cmr10 20.0 selectfont
0.000000 0.000000 moveto
/parenleft glyphshow
/Cmmi10 20.0 selectfont
7.763672 0.000000 moveto
/R glyphshow
/Cmr10 14.0 selectfont
22.939453 -3.401250 moveto
/zero glyphshow
/Cmmi10 20.0 selectfont
31.214922 0.000000 moveto
/comma glyphshow
40.263750 0.000000 moveto
/Z glyphshow
/Cmr10 14.0 selectfont
53.906328 -3.401250 moveto
/zero glyphshow
/Cmr10 20.0 selectfont
62.181797 0.000000 moveto
/parenright glyphshow
grestore
gsave
420.217124 366.345127 translate
0.000000 rotate
/Cmmi10 26.666666666666668 selectfont
0.000000 0.203125 moveto
/theta glyphshow
grestore
gsave
560.257118 27.497191 translate
0.000000 rotate
/Cmmi10 36.0 selectfont
0.000000 0.406250 moveto
/R glyphshow
grestore
gsave
136.318102 633.061875 translate
0.000000 rotate
/Cmmi10 36.0 selectfont
0.000000 0.406250 moveto
/Z glyphshow
grestore
gsave
226.017667 46.085088 translate
0.000000 rotate
/STIXGeneral-Regular 20.0 selectfont
0.000000 0.343750 moveto
/m glyphshow
15.559998 0.343750 moveto
/i glyphshow
21.119995 0.343750 moveto
/n glyphshow
31.119995 0.343750 moveto
/bracketleft glyphshow
/Cmmi10 20.0 selectfont
37.779999 0.343750 moveto
/R glyphshow
/Cmr10 14.0 selectfont
52.955780 -3.057500 moveto
/Psi glyphshow
/Cmr10 9.799999999999999 selectfont
64.456736 -5.438375 moveto
/zero glyphshow
/STIXGeneral-Regular 20.0 selectfont
71.525033 0.343750 moveto
/bracketright glyphshow
grestore
gsave
445.045846 46.085088 translate
0.000000 rotate
/STIXGeneral-Regular 20.0 selectfont
0.000000 0.343750 moveto
/m glyphshow
15.559998 0.343750 moveto
/a glyphshow
24.440002 0.343750 moveto
/x glyphshow
34.440002 0.343750 moveto
/bracketleft glyphshow
/Cmmi10 20.0 selectfont
41.100006 0.343750 moveto
/R glyphshow
/Cmr10 14.0 selectfont
56.275787 -3.057500 moveto
/Psi glyphshow
/Cmr10 9.799999999999999 selectfont
67.776744 -5.438375 moveto
/zero glyphshow
/STIXGeneral-Regular 20.0 selectfont
74.845040 0.343750 moveto
/bracketright glyphshow
grestore
gsave
92.312249 240.501778 translate
0.000000 rotate
/STIXGeneral-Regular 20.0 selectfont
0.000000 0.343750 moveto
/m glyphshow
15.559998 0.343750 moveto
/i glyphshow
21.119995 0.343750 moveto
/n glyphshow
31.119995 0.343750 moveto
/bracketleft glyphshow
/Cmmi10 20.0 selectfont
37.779999 0.343750 moveto
/Z glyphshow
/Cmr10 14.0 selectfont
51.422577 -3.057500 moveto
/Psi glyphshow
/Cmr10 9.799999999999999 selectfont
62.923533 -5.438375 moveto
/zero glyphshow
/STIXGeneral-Regular 20.0 selectfont
69.991830 0.343750 moveto
/bracketright glyphshow
grestore
gsave
89.312249 461.029957 translate
0.000000 rotate
/STIXGeneral-Regular 20.0 selectfont
0.000000 0.343750 moveto
/m glyphshow
15.559998 0.343750 moveto
/a glyphshow
24.440002 0.343750 moveto
/x glyphshow
34.440002 0.343750 moveto
/bracketleft glyphshow
/Cmmi10 20.0 selectfont
41.100006 0.343750 moveto
/Z glyphshow
/Cmr10 14.0 selectfont
54.742584 -3.057500 moveto
/Psi glyphshow
/Cmr10 9.799999999999999 selectfont
66.243540 -5.438375 moveto
/zero glyphshow
/STIXGeneral-Regular 20.0 selectfont
73.311837 0.343750 moveto
/bracketright glyphshow
grestore
gsave
362.781756 130.093235 translate
0.000000 rotate
/Cmr10 26.666666666666668 selectfont
0.000000 0.250000 moveto
/two glyphshow
/Cmmi10 26.666666666666668 selectfont
13.328125 0.250000 moveto
/r glyphshow
grestore
/STIXGeneral-Regular 36.000 selectfont
gsave

524.725868 610.329370 translate
0.000000 rotate
0.000000 0 m /uni2A00 glyphshow
40.536011 0 m /space glyphshow
grestore
gsave
574.257118 607.719995 translate
0.000000 rotate
/Cmmi10 50.4 selectfont
0.000000 0.734375 moveto
/phi1 glyphshow
grestore
/DejaVuSans-Bold 40.000 selectfont
gsave

330.539569 649.780625 translate
0.000000 rotate
0.000000 0 m /Q glyphshow
34.003906 0 m /L glyphshow
59.492188 0 m /K glyphshow
grestore
gsave
851.944633 68.079234 m
1248.895355 68.079234 l
1248.895355 641.4525 l
851.944633 641.4525 l
cl
1.000 setgray
fill
grestore
1.000 setlinewidth
1 setlinejoin
0 setlinecap
gsave
396.951 573.373 851.945 68.079 clipbox
/o {
gsave
newpath
translate
1.0 setlinewidth
1 setlinejoin

0 setlinecap

0 -3 m
0.795609 -3 1.55874 -2.683901 2.12132 -2.12132 c
2.683901 -1.55874 3 -0.795609 3 0 c
3 0.795609 2.683901 1.55874 2.12132 2.12132 c
1.55874 2.683901 0.795609 3 0 3 c
-0.795609 3 -1.55874 2.683901 -2.12132 2.12132 c
-2.683901 1.55874 -3 0.795609 -3 0 c
-3 -0.795609 -2.683901 -1.55874 -2.12132 -2.12132 c
-1.55874 -2.683901 -0.795609 -3 0 -3 c
cl

gsave
0.000 setgray
fill
grestore
stroke
grestore
} bind def
1050.42 354.766 o
grestore
gsave
396.951 573.373 851.945 68.079 clipbox
1098.243216 305.559236 m
1103.632087 322.139776 l
1108.023009 318.897808 l
1098.853806 306.479038 l
1098.942512 306.413544 l
1108.111714 318.832314 l
1112.502636 315.590346 l
cl
fill
grestore
1.500 setlinewidth
0 setlinejoin
gsave
396.951 573.373 851.945 68.079 clipbox
1160.682987 112.18487 m
1144.143374 106.671666 l
1144.143374 112.129738 l
940.158302 112.129738 l
940.158302 112.240002 l
1144.143374 112.240002 l
1144.143374 117.698075 l
cl
gsave
fill
grestore
stroke
grestore
gsave
396.951 573.373 851.945 68.079 clipbox
940.158302 112.18487 m
956.697915 117.698075 l
956.697915 112.240002 l
1160.682987 112.240002 l
1160.682987 112.129738 l
956.697915 112.129738 l
956.697915 106.671666 l
cl
gsave
fill
grestore
stroke
grestore
0.800 setlinewidth
1 setlinejoin
gsave
/o {
gsave
newpath
translate
0.8 setlinewidth
1 setlinejoin

0 setlinecap

0 0 m
0 -3.5 l

gsave
0.000 setgray
fill
grestore
stroke
grestore
} bind def
940.158 68.0792 o
grestore
gsave
/o {
gsave
newpath
translate
0.8 setlinewidth
1 setlinejoin

0 setlinecap

0 0 m
0 -3.5 l

gsave
0.000 setgray
fill
grestore
stroke
grestore
} bind def
1160.68 68.0792 o
grestore
gsave
/o {
gsave
newpath
translate
0.8 setlinewidth
1 setlinejoin

0 setlinecap

-0 0 m
-3.5 0 l

gsave
0.000 setgray
fill
grestore
stroke
grestore
} bind def
851.945 156.291 o
grestore
gsave
/o {
gsave
newpath
translate
0.8 setlinewidth
1 setlinejoin

0 setlinecap

-0 0 m
-3.5 0 l

gsave
0.000 setgray
fill
grestore
stroke
grestore
} bind def
851.945 553.241 o
grestore
3.000 setlinewidth
2 setlinecap
0.000 0.000 1.000 setrgbcolor
gsave
396.951 573.373 851.945 68.079 clipbox
1151.979946 354.765867 m
1153.698313 361.692557 l
1155.249766 368.610809 l
1156.624848 375.512192 l
1157.814364 382.388299 l
1158.809444 389.230752 l
1159.601607 396.031215 l
1160.182827 402.781403 l
1160.545595 409.473091 l
1160.682987 416.098127 l
1160.588721 422.648439 l
1160.257221 429.116046 l
1159.683672 435.493069 l
1158.864078 441.771739 l
1157.795309 447.944405 l
1156.475147 454.003548 l
1154.90233 459.941785 l
1153.076582 465.751881 l
1150.998648 471.426757 l
1148.670312 476.959501 l
1146.09441 482.34337 l
1143.274847 487.571806 l
1140.216586 492.638438 l
1136.925648 497.537094 l
1133.409093 502.261805 l
1129.674998 506.806815 l
1125.732424 511.166586 l
1121.591377 515.335807 l
1117.262765 519.309399 l
1112.758337 523.082519 l
1108.09063 526.650572 l
1103.272896 530.00921 l
1098.319034 533.15434 l
1093.243513 536.082132 l
1088.061285 538.789018 l
1082.787706 541.271699 l
1077.438445 543.527153 l
1072.029394 545.552629 l
1066.576579 547.345662 l
1061.096066 548.904066 l
1055.603874 550.225942 l
1050.115883 551.30968 l
1044.647746 552.15396 l
1039.214811 552.757752 l
1033.832033 553.120323 l
1028.513901 553.241228 l
1023.274371 553.120323 l
1018.126793 552.757752 l
1013.083857 552.15396 l
1008.157535 551.30968 l
1003.359041 550.225942 l
998.698782 548.904066 l
994.186332 547.345662 l
989.830403 545.552629 l
985.638826 543.527153 l
981.61854 541.271699 l
977.775584 538.789018 l
974.115103 536.082132 l
970.641349 533.15434 l
967.357699 530.00921 l
964.266674 526.650572 l
961.369959 523.082519 l
958.668433 519.309399 l
956.162205 515.335807 l
953.850647 511.166586 l
951.732432 506.806815 l
949.805584 502.261805 l
948.067511 497.537094 l
946.515062 492.638438 l
945.144566 487.571806 l
943.951888 482.34337 l
942.932468 476.959501 l
942.081378 471.426757 l
941.393365 465.751881 l
940.8629 459.941785 l
940.484223 454.003548 l
940.18776 444.871796 l
940.198776 435.493069 l
940.496217 425.893075 l
941.058895 416.098127 l
941.86574 406.135071 l
942.896032 396.031215 l
944.129602 385.814254 l
946.057091 372.064135 l
948.267885 358.22974 l
950.721612 344.378469 l
953.381495 330.577805 l
956.214597 316.894983 l
959.955791 300.058643 l
963.874812 283.638659 l
967.933395 267.759995 l
971.260914 255.528187 l
974.648098 243.779854 l
978.087382 232.572234 l
981.574277 221.959928 l
985.107107 211.994641 l
988.686745 202.72492 l
991.404006 196.256396 l
994.151404 190.222336 l
996.931581 184.639278 l
999.747679 179.522525 l
1002.603273 174.886102 l
1005.502302 170.742717 l
1007.461198 168.260035 l
1009.442589 166.004582 l
1011.447824 163.979105 l
1013.478277 162.186072 l
1015.53534 160.627669 l
1017.620408 159.305793 l
1019.734877 158.222055 l
1021.880125 157.377775 l
1024.057507 156.773982 l
1026.268342 156.411412 l
1028.513901 156.290506 l
1030.795399 156.411412 l
1033.113979 156.773982 l
1035.470699 157.377775 l
1037.866524 158.222055 l
1040.302311 159.305793 l
1042.778792 160.627669 l
1045.296565 162.186072 l
1047.856078 163.979105 l
1050.457612 166.004582 l
1053.101272 168.260035 l
1057.145489 172.068334 l
1061.283022 176.377394 l
1065.511481 181.175405 l
1069.82718 186.449215 l
1074.225018 192.184369 l
1078.698371 198.365148 l
1083.238977 204.974611 l
1087.836843 211.994641 l
1092.48015 219.405996 l
1097.15518 227.188364 l
1103.410514 238.104977 l
1109.651442 249.58995 l
1114.293409 258.543103 l
1118.876793 267.759995 l
1123.376663 277.215365 l
1127.76627 286.883296 l
1132.017182 296.737287 l
1136.099464 306.750332 l
1139.981893 316.894983 l
1143.632222 327.143436 l
1147.017482 337.4676 l
1150.104322 347.839177 l
1151.061181 351.301995 l
1151.061181 351.301995 l
stroke
grestore
gsave
396.951 573.373 851.945 68.079 clipbox
1151.061181 351.301995 m
1151.979946 354.765867 l
stroke
grestore
1.500 setlinewidth
0 setlinecap
[3 3] 0 setdash
0.000 setgray
gsave
396.951 573.373 851.945 68.079 clipbox
851.944633 156.290506 m
1028.513901 156.290506 l
stroke
grestore
gsave
396.951 573.373 851.945 68.079 clipbox
1160.682987 68.079234 m
1160.682987 416.098127 l
stroke
grestore
gsave
396.951 573.373 851.945 68.079 clipbox
940.158302 68.079234 m
940.158302 441.771739 l
stroke
grestore
gsave
396.951 573.373 851.945 68.079 clipbox
851.944633 553.241228 m
1028.513901 553.241228 l
stroke
grestore
2 setlinecap
[] 0 setdash
gsave
396.951 573.373 851.945 68.079 clipbox
1050.420644 354.765867 m
1151.979946 354.765867 l
stroke
grestore
gsave
396.951 573.373 851.945 68.079 clipbox
1050.420644 354.765867 m
1124.853488 280.415688 l
stroke
grestore
2.000 setlinewidth
gsave
396.951 573.373 851.945 68.079 clipbox
1118.102052 352.933722 m
1118.027689 351.102918 l
1117.903811 349.274797 l
1117.73051 347.450697 l
1117.507911 345.631956 l
1117.236178 343.819903 l
1116.91551 342.015868 l
1116.546142 340.22117 l
1116.128345 338.437125 l
1115.662423 336.665039 l
1115.148719 334.90621 l
1114.587609 333.161925 l
1113.979504 331.433464 l
1113.324849 329.72209 l
1112.624123 328.029059 l
1111.87784 326.355609 l
1111.086547 324.702967 l
1110.250822 323.072342 l
1109.371278 321.46493 l
1108.44856 319.881906 l
1107.483342 318.324432 l
1106.476332 316.793647 l
1105.428268 315.290672 l
stroke
grestore
1.000 setlinewidth
0 setlinejoin
0 setlinecap
gsave
/o {
gsave
newpath
translate
1.0 setlinewidth
0 setlinejoin

0 setlinecap

3 -0 m
-3 3 l
-3 -3 l
cl

gsave
0.000 setgray
fill
grestore
stroke
grestore
} bind def
1248.9 68.0792 o
grestore
gsave
/o {
gsave
newpath
translate
1.0 setlinewidth
0 setlinejoin

0 setlinecap

0 3 m
-3 -3 l
3 -3 l
cl

gsave
0.000 setgray
fill
grestore
stroke
grestore
} bind def
851.945 641.452 o
grestore
2.000 setlinewidth
2 setlinecap
gsave
851.944633 68.079234 m
851.944633 641.4525 l
stroke
grestore
gsave
851.944633 68.079234 m
1248.895355 68.079234 l
stroke
grestore
0.000 0.000 1.000 setrgbcolor
gsave
1138.630169 539.875910 translate
0.000000 rotate
/Cmr10 40.0 selectfont
0.000000 0.671875 moveto
/Psi glyphshow
/Cmr10 28.0 selectfont
32.859875 -6.130625 moveto
/zero glyphshow
grestore
0.000 setgray
gsave
1015.420644 370.792276 translate
0.000000 rotate
/Cmr10 20.0 selectfont
0.000000 0.000000 moveto
/parenleft glyphshow
/Cmmi10 20.0 selectfont
7.763672 0.000000 moveto
/R glyphshow
/Cmr10 14.0 selectfont
22.939453 -3.401250 moveto
/zero glyphshow
/Cmmi10 20.0 selectfont
31.214922 0.000000 moveto
/comma glyphshow
40.263750 0.000000 moveto
/Z glyphshow
/Cmr10 14.0 selectfont
53.906328 -3.401250 moveto
/zero glyphshow
/Cmr10 20.0 selectfont
62.181797 0.000000 moveto
/parenright glyphshow
grestore
gsave
1090.840321 325.827510 translate
0.000000 rotate
/Cmmi10 26.666666666666668 selectfont
0.000000 0.203125 moveto
/theta glyphshow
grestore
gsave
1234.895355 27.497191 translate
0.000000 rotate
/Cmmi10 36.0 selectfont
0.000000 0.406250 moveto
/R glyphshow
grestore
gsave
810.956340 633.061875 translate
0.000000 rotate
/Cmmi10 36.0 selectfont
0.000000 0.406250 moveto
/Z glyphshow
grestore
gsave
900.658302 46.085088 translate
0.000000 rotate
/STIXGeneral-Regular 20.0 selectfont
0.000000 0.343750 moveto
/m glyphshow
15.559998 0.343750 moveto
/i glyphshow
21.119995 0.343750 moveto
/n glyphshow
31.119995 0.343750 moveto
/bracketleft glyphshow
/Cmmi10 20.0 selectfont
37.779999 0.343750 moveto
/R glyphshow
/Cmr10 14.0 selectfont
52.955780 -3.057500 moveto
/Psi glyphshow
/Cmr10 9.799999999999999 selectfont
64.456736 -5.438375 moveto
/zero glyphshow
/STIXGeneral-Regular 20.0 selectfont
71.525033 0.343750 moveto
/bracketright glyphshow
grestore
gsave
1119.682987 46.085088 translate
0.000000 rotate
/STIXGeneral-Regular 20.0 selectfont
0.000000 0.343750 moveto
/m glyphshow
15.559998 0.343750 moveto
/a glyphshow
24.440002 0.343750 moveto
/x glyphshow
34.440002 0.343750 moveto
/bracketleft glyphshow
/Cmmi10 20.0 selectfont
41.100006 0.343750 moveto
/R glyphshow
/Cmr10 14.0 selectfont
56.275787 -3.057500 moveto
/Psi glyphshow
/Cmr10 9.799999999999999 selectfont
67.776744 -5.438375 moveto
/zero glyphshow
/STIXGeneral-Regular 20.0 selectfont
74.845040 0.343750 moveto
/bracketright glyphshow
grestore
gsave
766.950487 152.290506 translate
0.000000 rotate
/STIXGeneral-Regular 20.0 selectfont
0.000000 0.343750 moveto
/m glyphshow
15.559998 0.343750 moveto
/i glyphshow
21.119995 0.343750 moveto
/n glyphshow
31.119995 0.343750 moveto
/bracketleft glyphshow
/Cmmi10 20.0 selectfont
37.779999 0.343750 moveto
/Z glyphshow
/Cmr10 14.0 selectfont
51.422577 -3.057500 moveto
/Psi glyphshow
/Cmr10 9.799999999999999 selectfont
62.923533 -5.438375 moveto
/zero glyphshow
/STIXGeneral-Regular 20.0 selectfont
69.991830 0.343750 moveto
/bracketright glyphshow
grestore
gsave
763.950487 549.241228 translate
0.000000 rotate
/STIXGeneral-Regular 20.0 selectfont
0.000000 0.343750 moveto
/m glyphshow
15.559998 0.343750 moveto
/a glyphshow
24.440002 0.343750 moveto
/x glyphshow
34.440002 0.343750 moveto
/bracketleft glyphshow
/Cmmi10 20.0 selectfont
41.100006 0.343750 moveto
/Z glyphshow
/Cmr10 14.0 selectfont
54.742584 -3.057500 moveto
/Psi glyphshow
/Cmr10 9.799999999999999 selectfont
66.243540 -5.438375 moveto
/zero glyphshow
/STIXGeneral-Regular 20.0 selectfont
73.311837 0.343750 moveto
/bracketright glyphshow
grestore
gsave
1037.420644 85.987599 translate
0.000000 rotate
/Cmr10 26.666666666666668 selectfont
0.000000 0.250000 moveto
/two glyphshow
/Cmmi10 26.666666666666668 selectfont
13.328125 0.250000 moveto
/r glyphshow
grestore
/STIXGeneral-Regular 36.000 selectfont
gsave

1199.364105 610.329370 translate
0.000000 rotate
0.000000 0 m /uni2A02 glyphshow
40.536011 0 m /space glyphshow
grestore
gsave
1248.895355 607.719995 translate
0.000000 rotate
/Cmmi10 50.4 selectfont
0.000000 0.734375 moveto
/phi1 glyphshow
grestore
/DejaVuSans-Bold 40.000 selectfont
gsave

993.185619 649.780625 translate
0.000000 rotate
0.000000 0 m /I glyphshow
14.882812 0 m /M glyphshow
54.687500 0 m /A glyphshow
85.644531 0 m /S glyphshow
grestore

end
showpage
